{
  "firestore": {
    "rules": "firestore.rules",
    "indexes": "firestore.indexes.json"
  },
  "functions": {
    "predeploy": [
    ]
  },
  "hosting": {
    "public": "public",
    "rewrites": [{
      "source": "**",
      "function": "api"
    }]
  }
}
